<svg width="213" height="54" viewBox="0 0 213 54" fill="none" xmlns="http://www.w3.org/2000/svg">
<rect y="0.5" width="54" height="53" rx="16" fill="#F67704"/>
<path d="M27.255 44.336C24.919 44.336 22.807 43.936 20.919 43.136C19.063 42.336 17.591 41.184 16.503 39.68C15.415 38.176 14.855 36.4 14.823 34.352H22.023C22.119 35.728 22.599 36.816 23.463 37.616C24.359 38.416 25.575 38.816 27.111 38.816C28.679 38.816 29.911 38.448 30.807 37.712C31.703 36.944 32.151 35.952 32.151 34.736C32.151 33.744 31.847 32.928 31.239 32.288C30.631 31.648 29.863 31.152 28.935 30.8C28.039 30.416 26.791 30 25.191 29.552C23.015 28.912 21.239 28.288 19.863 27.68C18.519 27.04 17.351 26.096 16.359 24.848C15.399 23.568 14.919 21.872 14.919 19.76C14.919 17.776 15.415 16.048 16.407 14.576C17.399 13.104 18.791 11.984 20.583 11.216C22.375 10.416 24.423 10.016 26.727 10.016C30.183 10.016 32.983 10.864 35.127 12.56C37.303 14.224 38.503 16.56 38.727 19.568H31.335C31.271 18.416 30.775 17.472 29.847 16.736C28.951 15.968 27.751 15.584 26.247 15.584C24.935 15.584 23.879 15.92 23.079 16.592C22.311 17.264 21.927 18.24 21.927 19.52C21.927 20.416 22.215 21.168 22.791 21.776C23.399 22.352 24.135 22.832 24.999 23.216C25.895 23.568 27.143 23.984 28.743 24.464C30.919 25.104 32.695 25.744 34.071 26.384C35.447 27.024 36.631 27.984 37.623 29.264C38.615 30.544 39.111 32.224 39.111 34.304C39.111 36.096 38.647 37.76 37.719 39.296C36.791 40.832 35.431 42.064 33.639 42.992C31.847 43.888 29.719 44.336 27.255 44.336Z" fill="white"/>
<path d="M76.2 34.14C75.2267 34.14 74.3467 33.9733 73.56 33.64C72.7867 33.3067 72.1733 32.8267 71.72 32.2C71.2667 31.5733 71.0333 30.8333 71.02 29.98H74.02C74.06 30.5533 74.26 31.0067 74.62 31.34C74.9933 31.6733 75.5 31.84 76.14 31.84C76.7933 31.84 77.3067 31.6867 77.68 31.38C78.0533 31.06 78.24 30.6467 78.24 30.14C78.24 29.7267 78.1133 29.3867 77.86 29.12C77.6067 28.8533 77.2867 28.6467 76.9 28.5C76.5267 28.34 76.0067 28.1667 75.34 27.98C74.4333 27.7133 73.6933 27.4533 73.12 27.2C72.56 26.9333 72.0733 26.54 71.66 26.02C71.26 25.4867 71.06 24.78 71.06 23.9C71.06 23.0733 71.2667 22.3533 71.68 21.74C72.0933 21.1267 72.6733 20.66 73.42 20.34C74.1667 20.0067 75.02 19.84 75.98 19.84C77.42 19.84 78.5867 20.1933 79.48 20.9C80.3867 21.5933 80.8867 22.5667 80.98 23.82H77.9C77.8733 23.34 77.6667 22.9467 77.28 22.64C76.9067 22.32 76.4067 22.16 75.78 22.16C75.2333 22.16 74.7933 22.3 74.46 22.58C74.14 22.86 73.98 23.2667 73.98 23.8C73.98 24.1733 74.1 24.4867 74.34 24.74C74.5933 24.98 74.9 25.18 75.26 25.34C75.6333 25.4867 76.1533 25.66 76.82 25.86C77.7267 26.1267 78.4667 26.3933 79.04 26.66C79.6133 26.9267 80.1067 27.3267 80.52 27.86C80.9333 28.3933 81.14 29.0933 81.14 29.96C81.14 30.7067 80.9467 31.4 80.56 32.04C80.1733 32.68 79.6067 33.1933 78.86 33.58C78.1133 33.9533 77.2267 34.14 76.2 34.14ZM94.6175 28.22C94.6175 28.62 94.5908 28.98 94.5375 29.3H86.4375C86.5042 30.1 86.7842 30.7267 87.2775 31.18C87.7708 31.6333 88.3775 31.86 89.0975 31.86C90.1375 31.86 90.8775 31.4133 91.3175 30.52H94.3375C94.0175 31.5867 93.4042 32.4667 92.4975 33.16C91.5908 33.84 90.4775 34.18 89.1575 34.18C88.0908 34.18 87.1308 33.9467 86.2775 33.48C85.4375 33 84.7775 32.3267 84.2975 31.46C83.8308 30.5933 83.5975 29.5933 83.5975 28.46C83.5975 27.3133 83.8308 26.3067 84.2975 25.44C84.7642 24.5733 85.4175 23.9067 86.2575 23.44C87.0975 22.9733 88.0642 22.74 89.1575 22.74C90.2108 22.74 91.1508 22.9667 91.9775 23.42C92.8175 23.8733 93.4642 24.52 93.9175 25.36C94.3842 26.1867 94.6175 27.14 94.6175 28.22ZM91.7175 27.42C91.7042 26.7 91.4442 26.1267 90.9375 25.7C90.4308 25.26 89.8108 25.04 89.0775 25.04C88.3842 25.04 87.7975 25.2533 87.3175 25.68C86.8508 26.0933 86.5642 26.6733 86.4575 27.42H91.7175ZM100.211 24.64C100.571 24.0533 101.038 23.5933 101.611 23.26C102.198 22.9267 102.865 22.76 103.611 22.76V25.7H102.871C101.991 25.7 101.325 25.9067 100.871 26.32C100.431 26.7333 100.211 27.4533 100.211 28.48V34H97.4113V22.92H100.211V24.64ZM109.047 24.54C109.407 24.0067 109.901 23.5733 110.527 23.24C111.167 22.9067 111.894 22.74 112.707 22.74C113.654 22.74 114.507 22.9733 115.267 23.44C116.041 23.9067 116.647 24.5733 117.087 25.44C117.541 26.2933 117.767 27.2867 117.767 28.42C117.767 29.5533 117.541 30.56 117.087 31.44C116.647 32.3067 116.041 32.98 115.267 33.46C114.507 33.94 113.654 34.18 112.707 34.18C111.881 34.18 111.154 34.02 110.527 33.7C109.914 33.3667 109.421 32.94 109.047 32.42V34H106.247V19.2H109.047V24.54ZM114.907 28.42C114.907 27.7533 114.767 27.18 114.487 26.7C114.221 26.2067 113.861 25.8333 113.407 25.58C112.967 25.3267 112.487 25.2 111.967 25.2C111.461 25.2 110.981 25.3333 110.527 25.6C110.087 25.8533 109.727 26.2267 109.447 26.72C109.181 27.2133 109.047 27.7933 109.047 28.46C109.047 29.1267 109.181 29.7067 109.447 30.2C109.727 30.6933 110.087 31.0733 110.527 31.34C110.981 31.5933 111.461 31.72 111.967 31.72C112.487 31.72 112.967 31.5867 113.407 31.32C113.861 31.0533 114.221 30.6733 114.487 30.18C114.767 29.6867 114.907 29.1 114.907 28.42ZM119.832 28.42C119.832 27.3 120.052 26.3067 120.492 25.44C120.945 24.5733 121.552 23.9067 122.312 23.44C123.085 22.9733 123.945 22.74 124.892 22.74C125.719 22.74 126.439 22.9067 127.052 23.24C127.679 23.5733 128.179 23.9933 128.552 24.5V22.92H131.372V34H128.552V32.38C128.192 32.9 127.692 33.3333 127.052 33.68C126.425 34.0133 125.699 34.18 124.872 34.18C123.939 34.18 123.085 33.94 122.312 33.46C121.552 32.98 120.945 32.3067 120.492 31.44C120.052 30.56 119.832 29.5533 119.832 28.42ZM128.552 28.46C128.552 27.78 128.419 27.2 128.152 26.72C127.885 26.2267 127.525 25.8533 127.072 25.6C126.619 25.3333 126.132 25.2 125.612 25.2C125.092 25.2 124.612 25.3267 124.172 25.58C123.732 25.8333 123.372 26.2067 123.092 26.7C122.825 27.18 122.692 27.7533 122.692 28.42C122.692 29.0867 122.825 29.6733 123.092 30.18C123.372 30.6733 123.732 31.0533 124.172 31.32C124.625 31.5867 125.105 31.72 125.612 31.72C126.132 31.72 126.619 31.5933 127.072 31.34C127.525 31.0733 127.885 30.7 128.152 30.22C128.419 29.7267 128.552 29.14 128.552 28.46ZM139.677 34.14C138.703 34.14 137.823 33.9733 137.037 33.64C136.263 33.3067 135.65 32.8267 135.197 32.2C134.743 31.5733 134.51 30.8333 134.497 29.98H137.497C137.537 30.5533 137.737 31.0067 138.097 31.34C138.47 31.6733 138.977 31.84 139.617 31.84C140.27 31.84 140.783 31.6867 141.157 31.38C141.53 31.06 141.717 30.6467 141.717 30.14C141.717 29.7267 141.59 29.3867 141.337 29.12C141.083 28.8533 140.763 28.6467 140.377 28.5C140.003 28.34 139.483 28.1667 138.817 27.98C137.91 27.7133 137.17 27.4533 136.597 27.2C136.037 26.9333 135.55 26.54 135.137 26.02C134.737 25.4867 134.537 24.78 134.537 23.9C134.537 23.0733 134.743 22.3533 135.157 21.74C135.57 21.1267 136.15 20.66 136.897 20.34C137.643 20.0067 138.497 19.84 139.457 19.84C140.897 19.84 142.063 20.1933 142.957 20.9C143.863 21.5933 144.363 22.5667 144.457 23.82H141.377C141.35 23.34 141.143 22.9467 140.757 22.64C140.383 22.32 139.883 22.16 139.257 22.16C138.71 22.16 138.27 22.3 137.937 22.58C137.617 22.86 137.457 23.2667 137.457 23.8C137.457 24.1733 137.577 24.4867 137.817 24.74C138.07 24.98 138.377 25.18 138.737 25.34C139.11 25.4867 139.63 25.66 140.297 25.86C141.203 26.1267 141.943 26.3933 142.517 26.66C143.09 26.9267 143.583 27.3267 143.997 27.86C144.41 28.3933 144.617 29.0933 144.617 29.96C144.617 30.7067 144.423 31.4 144.037 32.04C143.65 32.68 143.083 33.1933 142.337 33.58C141.59 33.9533 140.703 34.14 139.677 34.14ZM158.094 28.22C158.094 28.62 158.067 28.98 158.014 29.3H149.914C149.981 30.1 150.261 30.7267 150.754 31.18C151.247 31.6333 151.854 31.86 152.574 31.86C153.614 31.86 154.354 31.4133 154.794 30.52H157.814C157.494 31.5867 156.881 32.4667 155.974 33.16C155.067 33.84 153.954 34.18 152.634 34.18C151.567 34.18 150.607 33.9467 149.754 33.48C148.914 33 148.254 32.3267 147.774 31.46C147.307 30.5933 147.074 29.5933 147.074 28.46C147.074 27.3133 147.307 26.3067 147.774 25.44C148.241 24.5733 148.894 23.9067 149.734 23.44C150.574 22.9733 151.541 22.74 152.634 22.74C153.687 22.74 154.627 22.9667 155.454 23.42C156.294 23.8733 156.941 24.52 157.394 25.36C157.861 26.1867 158.094 27.14 158.094 28.22ZM155.194 27.42C155.181 26.7 154.921 26.1267 154.414 25.7C153.907 25.26 153.287 25.04 152.554 25.04C151.861 25.04 151.274 25.2533 150.794 25.68C150.327 26.0933 150.041 26.6733 149.934 27.42H155.194ZM163.688 24.64C164.048 24.0533 164.514 23.5933 165.088 23.26C165.674 22.9267 166.341 22.76 167.088 22.76V25.7H166.348C165.468 25.7 164.801 25.9067 164.348 26.32C163.908 26.7333 163.688 27.4533 163.688 28.48V34H160.888V22.92H163.688V24.64ZM172.524 24.54C172.884 24.0067 173.377 23.5733 174.004 23.24C174.644 22.9067 175.37 22.74 176.184 22.74C177.13 22.74 177.984 22.9733 178.744 23.44C179.517 23.9067 180.124 24.5733 180.564 25.44C181.017 26.2933 181.244 27.2867 181.244 28.42C181.244 29.5533 181.017 30.56 180.564 31.44C180.124 32.3067 179.517 32.98 178.744 33.46C177.984 33.94 177.13 34.18 176.184 34.18C175.357 34.18 174.63 34.02 174.004 33.7C173.39 33.3667 172.897 32.94 172.524 32.42V34H169.724V19.2H172.524V24.54ZM178.384 28.42C178.384 27.7533 178.244 27.18 177.964 26.7C177.697 26.2067 177.337 25.8333 176.884 25.58C176.444 25.3267 175.964 25.2 175.444 25.2C174.937 25.2 174.457 25.3333 174.004 25.6C173.564 25.8533 173.204 26.2267 172.924 26.72C172.657 27.2133 172.524 27.7933 172.524 28.46C172.524 29.1267 172.657 29.7067 172.924 30.2C173.204 30.6933 173.564 31.0733 174.004 31.34C174.457 31.5933 174.937 31.72 175.444 31.72C175.964 31.72 176.444 31.5867 176.884 31.32C177.337 31.0533 177.697 30.6733 177.964 30.18C178.244 29.6867 178.384 29.1 178.384 28.42ZM185.448 21.6C184.955 21.6 184.542 21.4467 184.208 21.14C183.888 20.82 183.728 20.4267 183.728 19.96C183.728 19.4933 183.888 19.1067 184.208 18.8C184.542 18.48 184.955 18.32 185.448 18.32C185.942 18.32 186.348 18.48 186.668 18.8C187.002 19.1067 187.168 19.4933 187.168 19.96C187.168 20.4267 187.002 20.82 186.668 21.14C186.348 21.4467 185.942 21.6 185.448 21.6ZM186.828 22.92V34H184.028V22.92H186.828Z" fill="#F67704"/>
</svg>
